Title: Contact

----

Text: Please contact me on linkedin  <a href="https://www.linkedin.com/in/benoit-joffre-48a658165/">ICI</a> !

----

Phone: 06 99 21 90 50

----

Mail: benoit.joffre911@gmail.com